# Coefficients used by the IdealGasHeatCapacityPolynomial function

"ID","cp0","cp1","cp2","cp3","cpUnit","Tunit","Tmin","Tmax"
"string","(dimensionless)","(dimensionless)","(dimensionless)","(dimensionless)","string","string","K","K"
"SILICON-TETRACHLORIDE",5.0587e-2,1.8717e-4,-2.1132e-7,7.5000e-11,"kJ/mol-K","K",200,600
"SILICON-TETRACHLORIDE",7.6438e-2,7.3337e-5,-6.0619e-8,1.6971e-11,"kJ/mol-K","K",400,1500
"TRICHLOROSILANE",3.27296e-2,1.952127e-4,-2.001833e-7,7.177424e-11,"kJ/mol-K","K",200,1200
