# Coefficients used by the LiquidHeatCapacityDIPPR107 function

"ID","cp0","cp1","cp2","cp3","cp4","cpUnit","Tunit","Tmin","Tmax"
"string","(dimensionless)","(dimensionless)","(dimensionless)","(dimensionless)","(dimensionless)","string","string","K","K"
"SILICON-TETRACHLORIDE",0.133281,411013637076.047300,9173.103633,0.412169,1126.946140,"kJ/mol-K","K",200,600
